2021-01-17 11:40:18: Dracula.txt is 862 kb in size. The function took 1 ms to execute.
2021-01-17 11:40:20: Dracula.txt has 15973 number of lines. The function took 48 ms to execute.
2021-01-17 11:40:24: Dracula.txt does contain the word: dracula. The function took 2 ms to execute.
2021-01-17 12:36:16: Dracula.txt contains the word 'dracula' 38 times. The function took 166 ms to execute.
2021-01-18 09:00:10: Dracula.txt contains the word 'Dracula' 38 times. The function took 142 ms to execute.
2021-01-18 10:52:14: Dracula.txt is 862 kb in size. The function took 0 ms to execute.
2021-01-18 10:52:16: Dracula.txt has 15973 number of lines. The function took 44 ms to execute.
2021-01-18 10:52:19: Dracula.txt does contain the word 'the'. The function took 0 ms to execute.
2021-01-18 10:52:26: Dracula.txt contains the word 'the' 8092 times. The function took 128 ms to execute.
2021-01-18 11:00:23: Dracula.txt DOES contain the word 'The'. The function took 4 ms to execute.
2021-01-18 11:00:28: Dracula.txt contains the word 'the' 8092 times. The function took 148 ms to execute.
2021-01-18 11:16:12: Dracula.txt is 862 kb in size. The function took 1 ms to execute.
2021-01-18 11:16:14: Dracula.txt has 15973 number of lines. The function took 43 ms to execute.
2021-01-18 11:16:20: Dracula.txt DOES contain the word 'dracula'. The function took 1 ms to execute.
2021-01-18 11:16:24: Dracula.txt contains the word 'the' 8092 times. The function took 116 ms to execute.
2021-01-18 11:40:12: Dracula.txt DOES contain the word 'dracula'. The function took 3 ms to execute.
2021-01-18 11:40:15: Dracula.txt contains the word 'the' 8092 times. The function took 147 ms to execute.
2021-01-18 11:44:31: Dracula.txt is 862 kb in size. The function took 0 ms to execute.
2021-01-18 11:44:34: Dracula.txt has 15973 number of lines. The function took 17 ms to execute.
2021-01-18 11:44:40: Dracula.txt DOES contain the word 'dracula'. The function took 1 ms to execute.
2021-01-18 11:44:45: Dracula.txt contains the word 'the' 8092 times. The function took 72 ms to execute.
